\relax 
\providecommand\hyper@newdestlabel[2]{}
\providecommand\HyperFirstAtBeginDocument{\AtBeginDocument}
\HyperFirstAtBeginDocument{\ifx\hyper@anchor\@undefined
\global\let\oldcontentsline\contentsline
\gdef\contentsline#1#2#3#4{\oldcontentsline{#1}{#2}{#3}}
\global\let\oldnewlabel\newlabel
\gdef\newlabel#1#2{\newlabelxx{#1}#2}
\gdef\newlabelxx#1#2#3#4#5#6{\oldnewlabel{#1}{{#2}{#3}}}
\AtEndDocument{\ifx\hyper@anchor\@undefined
\let\contentsline\oldcontentsline
\let\newlabel\oldnewlabel
\fi}
\fi}
\global\let\hyper@last\relax 
\gdef\HyperFirstAtBeginDocument#1{#1}
\providecommand*\HyPL@Entry[1]{}
\HyPL@Entry{0<</S/D>>}
\selectlanguage *{spanish}
\@writefile{toc}{\selectlanguage *{spanish}}
\@writefile{lof}{\selectlanguage *{spanish}}
\@writefile{lot}{\selectlanguage *{spanish}}
\newlabel{fig:comic2}{{}{2}{}{Doc-Start}{}}
\@writefile{toc}{\contentsline {part}{I\hspace  {1em}Introducción}{4}{part.1}\protected@file@percent }
\@writefile{toc}{\contentsline {chapter}{\numberline {1}Nombre del capitulo}{5}{chapter.1}\protected@file@percent }
\@writefile{lof}{\addvspace {10\p@ }}
\@writefile{lot}{\addvspace {10\p@ }}
\@writefile{lof}{\contentsline {figure}{\numberline {1.1}{\ignorespaces Imagen generica}}{6}{figure.1.1}\protected@file@percent }
\newlabel{fig:imagen1}{{1.1}{6}{Imagen generica}{figure.1.1}{}}
